{
  "sections": [
    {
      "id": "freediving",
      "banner": {
        "title": "Freediving",
        "subtitle": "dive with ocean tigers",
        "backgroundImage": "/images/uploads/down.jpg",
        "style": "big",
        "ctas": [
          {
            "url": "#freediving",
            "text": "read more"
          }
        ]
      },
      "content": [
        {
          "title": "This is freediving",
          "content": [
            {
              "type": "content",
              "content": "left column"
            },
            {
              "type": "content",
              "content": "right column"
            }
          ]
        }
      ]
    }
  ]
}